Workshop: Interactive Data Analysis with Shiny - Mapping data & advanced visualization
…
Aggregate Guerry variables and geometries by their grouping variable Region. Features are summed or averaged while geometries are merged.

2.8 Guerry as spatial data

Question: What can we say about the Guerry dataset in terms of spatial information?

data_guerry["Literacy"]

Simple feature collection with 85 features and 1 field
Geometry type: MULTIPOLYGON
Dimension:     XY
Bounding box:  xmin: 47680 ymin: 1703258 xmax: 1031401 ymax: 2677441
Projected CRS: NTF (Paris) / Lambert zone II
# A tibble: 85 × 2
   Literacy                                                             geometry
      <int>                                                   <MULTIPOLYGON [m]>
 1       37 (((801150 2092615, 800669 2093190, 800688 2095430, 800780 2095795, …
 2       51 (((729326 2521619, 729320 2521230, 729280 2518544, 728751 2517520, …
 3       13 (((710830 2137350, 711746 2136617, 712430 2135212, 712070 2134132, …
 4       46 (((882701 1920024, 882408 1920733, 881778 1921200, 881526 1922332, …
 5       69 (((886504 1922890, 885733 1922978, 885479 1923276, 883061 1925266, …
 6       27 (((747008 1925789, 746630 1925762, 745723 1925138, 744216 1925236, …
 7       67 (((818893 2514767, 818614 2514515, 817900 2514467, 817327 2514945, …
 8       18 (((509103 1747787, 508820 1747513, 508154 1747093, 505861 1746627, …
 9       59 (((775400 2345600, 775068 2345397, 773587 2345177, 772940 2344780, …
10       34 (((626230 1810121, 626269 1810496, 627494 1811321, 627681 1812424, …
# ℹ 75 more rows
…
