Workshop: Interactive Data Analysis with Shiny - Build your own app
…
Region: Europe

Time: 2018

Observations: 49,519

Variables: 14

How to read the data:

library(haven) # the haven package has to be attached
ess <- readRDS("ess_trust.rds")
ess

# A tibble: 49,519 × 14
    idno country internet_use          trust_parliament trust_legal trust_police
   <dbl> <chr>   <dbl+lbl>             <dbl+lbl>        <dbl+lbl>   <dbl+lbl>   
 1    27 AT      5 [Every day]         5 [5]            10 [Comple… 10 [Complet…
 2   137 AT      5 [Every day]         7 [7]             8 [8]       8 [8]      
 3   194 AT      4 [Most days]         6 [6]             8 [8]       8 [8]      
 4   208 AT      5 [Every day]         0 [No trust at …  5 [5]       8 [8]      
 5   220 AT      1 [Never]             7 [7]             8 [8]       8 [8]      
 6   254 AT      2 [Only occasionally] 6 [6]             5 [5]       7 [7]      
 7   290 AT      1 [Never]             0 [No trust at …  5 [5]       5 [5]      
 8   301 AT      1 [Never]             5 [5]             7 [7]       7 [7]      
 9   305 AT      5 [Every day]         1 [1]            10 [Comple… 10 [Complet…
10   400 AT      4 [Most days]         3 [3]             5 [5]       5 [5]      
# ℹ 49,509 more rows
# ℹ 8 more variables: trust_politicians <dbl+lbl>, trust_parties <dbl+lbl>,
#   trust_eu <dbl+lbl>, trust_un <dbl+lbl>, left_right <dbl+lbl>,
#   happiness <dbl+lbl>, age <dbl+lbl>, income_feeling <dbl+lbl>
…
Variables: 27

Source: https://sfdep.josiahparry.com/reference/guerry

How to read the data:

guerry <- readRDS(url("https://github.com/paulcbauer/shiny_workshop/raw/shiny_workshop_2024/data/guerry.rds"))
guerry

Simple feature collection with 85 features and 26 fields
Geometry type: MULTIPOLYGON
Dimension:     XY
Bounding box:  xmin: 47680 ymin: 1703258 xmax: 1031401 ymax: 2677441
CRS:           NA
# A tibble: 85 × 27
   code_dept count ave_id_geo  dept region department   crime_pers crime_prop
   <fct>     <dbl>      <dbl> <int> <fct>  <fct>             <int>      <int>
 1 01            1         49     1 E      Ain               28870      15890
 2 02            1        812     2 N      Aisne             26226       5521
 3 03            1       1418     3 C      Allier            26747       7925
 4 04            1       1603     4 E      Basses-Alpes      12935       7289
 5 05            1       1802     5 E      Hautes-Alpes      17488       8174
 6 07            1       2249     7 S      Ardeche            9474      10263
 7 08            1      35395     8 N      Ardennes          35203       8847
 8 09            1       2526     9 S      Ariege             6173       9597
 9 10            1      34410    10 E      Aube              19602       4086
10 11            1       2807    11 S      Aude              15647      10431
# ℹ 75 more rows
# ℹ 19 more variables: literacy <int>, donations <int>, infants <int>,
#   suicides <int>, main_city <ord>, wealth <int>, commerce <int>,
#   clergy <int>, crime_parents <int>, infanticide <int>,
#   donation_clergy <int>, lottery <int>, desertion <int>, instruction <int>,
#   prostitutes <int>, distance <dbl>, area <int>, pop1831 <dbl>,
#   geometry <MULTIPOLYGON>
…
